<?xml version="1.0" encoding="UTF-8"?>
<svg width="31px" height="32px" viewBox="0 0 31 32" version="1.1" xmlns="http://www.w3.org/2000/svg" xmlns:xlink="http://www.w3.org/1999/xlink">
    <!-- Generator: Sketch 46.2 (44496) - http://www.bohemiancoding.com/sketch -->
    <title>footericon-in</title>
    <desc>Created with Sketch.</desc>
    <defs>
        <polygon id="path-1" points="15.5250732 0.21697561 0.0468292683 0.21697561 0.0468292683 31.2202927 31.0033171 31.2202927 31.0033171 0.21697561 15.5250732 0.21697561"></polygon>
    </defs>
    <g id="Symbols" stroke="none" stroke-width="1" fill="none" fill-rule="evenodd">
        <g id="Footer-Neu" transform="translate(-776.000000, -133.000000)">
            <g id="Footer">
                <g id="social-media" transform="translate(776.000000, 133.000000)">
                    <path d="M15.4997073,18.8206829 C17.2105366,18.8206829 18.6037073,17.4306341 18.6037073,15.7174634 C18.6037073,15.043122 18.3843902,14.4187317 18.0183415,13.9090732 C17.4540488,13.1285854 16.5369756,12.6165854 15.4997073,12.6165854 C14.4663415,12.6165854 13.5484878,13.1254634 12.9849756,13.9090732 C12.6158049,14.4187317 12.3996098,15.043122 12.3964878,15.7174634 C12.3964878,17.4306341 13.7896585,18.8206829 15.4997073,18.8206829 Z" id="Fill-1" fill="#484848"></path>
                    <g id="Group-5">
                        <mask id="mask-2" fill="white">
                            <use xlink:href="#path-1"></use>
                        </mask>
                        <g id="Clip-3"></g>
                        <polygon id="Fill-2" fill="#484848" mask="url(#mask-2)" points="22.2774634 11.9211707 22.2774634 8.93346341 21.8872195 8.93346341 19.2866341 8.94282927 19.299122 11.9305366"></polygon>
                        <path d="M15.4997073,0.21697561 C6.95414634,0.21697561 0,7.17190244 0,15.7174634 C0,24.2661463 6.95414634,31.2202927 15.4997073,31.2202927 C24.0483902,31.2202927 31.0033171,24.2661463 31.0033171,15.7174634 C31.0033171,7.17190244 24.0483902,0.21697561 15.4997073,0.21697561 Z M24.316878,13.9090732 L24.316878,21.1285854 C24.316878,23.0072195 22.7894634,24.5346341 20.9084878,24.5346341 L10.0917073,24.5346341 C8.21307317,24.5346341 6.68565854,23.0072195 6.68565854,21.1285854 L6.68565854,10.3118049 C6.68565854,8.43082927 8.21307317,6.90341463 10.0917073,6.90341463 L20.9084878,6.90341463 C22.7894634,6.90341463 24.316878,8.43082927 24.316878,10.3118049 L24.316878,13.9090732 Z" id="Fill-4" fill="#484848" mask="url(#mask-2)"></path>
                    </g>
                    <path d="M20.323122,15.7174634 C20.323122,18.3758049 18.1619512,20.5400976 15.4997073,20.5400976 C12.8413659,20.5400976 10.6801951,18.3758049 10.6801951,15.7174634 C10.6801951,15.0798049 10.8081951,14.467122 11.0337561,13.9090732 L8.40273171,13.9090732 L8.40273171,21.1285854 C8.40273171,22.0620488 9.1582439,22.8152195 10.0917073,22.8152195 L20.9084878,22.8152195 C21.8411707,22.8152195 22.5974634,22.0620488 22.5974634,21.1285854 L22.5974634,13.9090732 L19.966439,13.9090732 C20.192,14.467122 20.323122,15.0798049 20.323122,15.7174634 Z" id="Fill-6" fill="#484848"></path>
                </g>
            </g>
        </g>
    </g>
</svg>