<?xml version="1.0" encoding="UTF-8" standalone="no"?>
<svg width="79px" height="41px" viewBox="0 0 79 41" version="1.1" xmlns="http://www.w3.org/2000/svg"
     xmlns:xlink="http://www.w3.org/1999/xlink">
    <!-- Generator: Sketch 39.1 (31720) - http://www.bohemiancoding.com/sketch -->
    <title>360grad-icon</title>
    <desc>Created with Sketch.</desc>
    <defs></defs>
    <g id="360-Grad-Ansicht" stroke="none" stroke-width="1" fill="none" fill-rule="evenodd">
        <g id="Button" transform="translate(-46.000000, -51.000000)">
            <g id="Group-5" transform="translate(27.000000, 19.000000)">
                <rect id="Rectangle-266" fill="#FFFFFF" x="0" y="10" width="301" height="78" rx="4"></rect>
                <g id="Group-3" transform="translate(19.000000, 26.000000)">
                    <g id="360grad-icon">
                        <path d="M11.3734516,26.7541091 L13.3000323,23.7401273 C14.4536022,24.9706727 15.7074086,25.5850909 17.0606022,25.5850909 C19.5274409,25.5850909 20.7617097,24.4212 20.7617097,22.0925636 C20.7617097,21.0337818 20.404086,20.1715455 19.6888387,19.5067091 C18.9735914,18.8418727 18.0103011,18.5094545 16.7981183,18.5094545 L16.1134516,18.5094545 L16.1134516,15.2792727 L16.6936344,15.2792727 C18.9166774,15.2792727 20.0277742,14.3435455 20.0277742,12.4712364 C20.0277742,10.5083455 18.9956774,9.52732727 16.9314839,9.52732727 C15.8645591,9.52732727 14.8273656,10.0289455 13.8199032,11.0338909 L11.9850645,8.35830909 C12.4514194,7.77978182 13.1811075,7.27645455 14.174129,6.84747273 C15.1671505,6.41849091 16.160172,6.20485455 17.1531935,6.20485455 C19.3278172,6.20485455 21.0233441,6.70647273 22.2397742,7.70970909 C23.4562043,8.7138 24.0644194,10.1186727 24.0644194,11.9251818 C24.0644194,14.0735091 23.147,15.7091091 21.3121613,16.8336909 C23.6362903,17.9531455 24.7983548,19.7835818 24.7983548,22.3232909 C24.7983548,24.4135091 24.1094409,26.0328727 22.7324624,27.1830909 C21.3546344,28.3333091 19.4535376,28.9075636 17.0266237,28.9075636 C14.818871,28.9075636 12.9347634,28.1897455 11.3734516,26.7541091"
                              id="Fill-1" fill="#94C558"></path>
                        <path d="M38.4568602,6.14247273 L40.5176559,8.32754545 C39.0353441,9.10945455 37.6880968,10.1374727 36.4750645,11.4107455 C35.2611828,12.6848727 34.4261613,13.9427636 33.9683011,15.1861273 C35.0029462,14.7152727 35.8974301,14.4802727 36.6534516,14.4802727 C38.7108495,14.4802727 40.3647527,15.1246 41.6117634,16.4132545 C42.8596237,17.7019091 43.483129,19.4443273 43.483129,21.6413636 C43.483129,23.8076364 42.8443333,25.5603091 41.5658925,26.8993818 C40.2874516,28.2384545 38.6726237,28.9075636 36.7222581,28.9075636 C31.6271828,28.9075636 29.0804946,25.7055818 29.0804946,19.2999091 C29.0804946,16.6132182 30.0633226,13.8940545 32.0289785,11.1424182 C33.9946344,8.39078182 36.137828,6.72441818 38.4568602,6.14247273 L38.4568602,6.14247273 Z M33.1171398,21.5661636 C33.1171398,24.2460182 34.2469247,25.5850909 36.5064946,25.5850909 C37.4332581,25.5850909 38.1697419,25.2518182 38.7176452,24.5844182 C39.2646989,23.9170182 39.5390753,22.9864182 39.5390753,21.7917636 C39.5390753,20.5672 39.2528065,19.5964364 38.6802688,18.8786182 C38.1077312,18.1616545 37.3678495,17.8027455 36.4623226,17.8027455 C34.2316344,17.8027455 33.1171398,19.0572182 33.1171398,21.5661636 L33.1171398,21.5661636 Z"
                              id="Fill-2" fill="#94C558"></path>
                        <path d="M46.1444946,16.9328182 C46.1444946,13.9273818 46.8733333,11.3885273 48.3318602,9.31454545 C49.7895376,7.24141818 51.7373548,6.20485455 54.1753118,6.20485455 C59.2593441,6.20485455 61.8017849,9.94092727 61.8017849,17.4130727 C61.8017849,20.9090182 61.1154194,23.6991091 59.7418387,25.7824909 C58.3691075,27.8658727 56.4433763,28.9075636 53.9654946,28.9075636 C51.2990323,28.9075636 49.329129,27.9462 48.0549355,26.0234727 C46.7815914,24.0998909 46.1444946,21.0696727 46.1444946,16.9328182 L46.1444946,16.9328182 Z M50.1819892,17.2037091 C50.1819892,20.1339455 50.4648602,22.2891091 51.0306022,23.6692 C51.5971935,25.0492909 52.5358495,25.7397636 53.8465699,25.7397636 C55.266871,25.7397636 56.2751828,25.1168 56.8715054,23.8717273 C57.4669785,22.6266545 57.7651398,20.4091091 57.7651398,17.2190909 C57.7651398,14.2486909 57.4797204,12.1986364 56.9088817,11.0680727 C56.3371935,9.93836364 55.401086,9.37265455 54.0997097,9.37265455 C51.4876129,9.37265455 50.1819892,11.9832909 50.1819892,17.2037091 L50.1819892,17.2037091 Z"
                              id="Fill-3" fill="#94C558"></path>
                        <path d="M63.5983978,4.51969091 C63.5983978,2.40896364 65.299871,0.697309091 67.398043,0.697309091 C69.4970645,0.697309091 71.1985376,2.40896364 71.1985376,4.51969091 C71.1985376,6.63127273 69.4970645,8.34292727 67.398043,8.34292727 C65.299871,8.34292727 63.5983978,6.63127273 63.5983978,4.51969091 L63.5983978,4.51969091 Z"
                              id="Stroke-4"></path>
                        <polyline id="Fill-5" fill="#94C558"
                                  points="39.2400645 39.6244182 30.5330753 46.4257455 30.5330753 32.8222364 39.2400645 39.6244182"></polyline>
                        <path d="M4.38747312,25.7953091 C4.38747312,32.1454364 17.2916559,37.4034545 34.1220538,38.3186727 L34.1237527,41.3010364 C15.0244409,40.3747091 0.295612903,34.4501455 0.295612903,27.2796545 C0.295612903,23.3179818 4.79351613,19.7365818 12.0419785,17.1686727 L12.0419785,17.8864909 C7.25186022,20.0536182 4.38747312,22.8026909 4.38747312,25.7953091 L4.38747312,25.7953091 Z"
                              id="Fill-6" fill="#94C558"></path>
                        <path d="M4.38747312,25.7953091 C4.38747312,32.1454364 17.2916559,37.4034545 34.1220538,38.3186727 L34.1237527,41.3010364 C15.0244409,40.3747091 0.295612903,34.4501455 0.295612903,27.2796545 C0.295612903,23.3179818 4.79351613,19.7365818 12.0419785,17.1686727 L12.0419785,17.8864909 C7.25186022,20.0536182 4.38747312,22.8026909 4.38747312,25.7953091 L4.38747312,25.7953091 Z"
                              id="Stroke-7"></path>
                        <path d="M78.4181183,27.2796545 C78.4181183,34.6381455 62.9077849,40.6840545 43.0821828,41.3634182 L43.0830323,38.3887455 C60.6448172,37.7145091 74.3262581,32.3334364 74.3262581,25.7953091 C74.3262581,22.5839273 71.0260968,19.6519818 65.5869892,17.4199091 L65.5878387,16.7978 C73.4683011,19.3862182 78.4181183,23.1231455 78.4181183,27.2796545 L78.4181183,27.2796545 Z"
                              id="Fill-8" fill="#94C558"></path>
                        <path d="M78.4181183,27.2796545 C78.4181183,34.6381455 62.9077849,40.6840545 43.0821828,41.3634182 L43.0830323,38.3887455 C60.6448172,37.7145091 74.3262581,32.3334364 74.3262581,25.7953091 C74.3262581,22.5839273 71.0260968,19.6519818 65.5869892,17.4199091 L65.5878387,16.7978 C73.4683011,19.3862182 78.4181183,23.1231455 78.4181183,27.2796545 L78.4181183,27.2796545 Z"
                              id="Stroke-9"></path>
                    </g>
                </g>
            </g>
        </g>
    </g>
</svg>