<?xml version="1.0" encoding="UTF-8" standalone="no"?>
<svg width="25px" height="17px" viewBox="0 0 25 17" version="1.1" xmlns="http://www.w3.org/2000/svg"
     xmlns:xlink="http://www.w3.org/1999/xlink" xmlns:sketch="http://www.bohemiancoding.com/sketch/ns">
    <!-- Generator: bin/sketchtool 1.4 (305) - http://www.bohemiancoding.com/sketch -->
    <title>busines-card</title>
    <desc>Created with bin/sketchtool.</desc>
    <defs></defs>
    <g id="Page-2" stroke="none" stroke-width="1" fill="none" fill-rule="evenodd" sketch:type="MSPage">
        <g id="BM---Teamseite" sketch:type="MSArtboardGroup" transform="translate(-294.000000, -1113.000000)">
            <g id="Rectangle-338-+-Kontaktkarte" sketch:type="MSLayerGroup"
               transform="translate(135.000000, 1018.000000)">
                <rect id="Rectangle-338" fill="#FAFAFA" sketch:type="MSShapeGroup" x="0" y="0" width="570" height="372"
                      rx="2"></rect>
                <g id="Kontaktkarte" transform="translate(30.000000, 25.000000)" fill="#94C558"
                   sketch:type="MSShapeGroup">
                    <g id="Head-Kontakt">
                        <g id="Frank-Richert-+-Geschäftsführer-+-230-+-flagge-deutschland-+-busines-card-+-Kontakt-speichern"
                           transform="translate(128.000000, 7.000000)">
                            <g id="busines-card-+-Kontakt-speichern" transform="translate(1.000000, 63.000000)">
                                <g id="busines-card">
                                    <path d="M24.1733079,0.851 L0.385334531,0.851 C0.172358857,0.851 0,1.02335886 0,1.23642207 L0,15.6223904 C0,15.8351035 0.172358857,16.0078125 0.385334531,16.0078125 L24.1733079,16.0078125 C24.3860209,16.0078125 24.5587299,15.8351035 24.5587299,15.6223904 L24.5587299,1.23642207 C24.5587299,1.02335886 24.3860209,0.851 24.1733079,0.851 L24.1733079,0.851 Z M0.770756597,1.6217566 L23.7879733,1.6217566 L23.7879733,15.2370559 L0.770756597,15.2370559 L0.770756597,1.6217566 Z"
                                          id="Fill-1"></path>
                                    <path d="M6.24614844,8.42498567 C7.54010914,8.42498567 8.59255736,7.37174962 8.59255736,6.07752631 C8.59255736,4.78330299 7.54010914,3.73015449 6.24614844,3.73015449 C4.95227527,3.73015449 3.89982705,4.78330299 3.89982705,6.07752631 C3.89982705,7.37174962 4.95227527,8.42498567 6.24614844,8.42498567 L6.24614844,8.42498567 Z M6.24614844,4.50091108 C7.11468302,4.50091108 7.82180077,5.20837898 7.82180077,6.07752631 C7.82180077,6.94676118 7.11468302,7.65422907 6.24614844,7.65422907 C5.37735125,7.65422907 4.67049611,6.94676118 4.67049611,6.07752631 C4.67049611,5.20837898 5.37735125,4.50091108 6.24614844,4.50091108 L6.24614844,4.50091108 Z"
                                          id="Fill-2"></path>
                                    <path d="M3.36095395,13.1381995 C3.57392963,13.1381995 3.74628848,12.965578 3.74628848,12.7528649 L3.74628848,11.6634764 C3.74628848,10.8294311 4.42504449,10.1506751 5.25900225,10.1506751 L7.24905115,10.1506751 C8.08344659,10.1506751 8.7622026,10.8294311 8.7622026,11.6634764 L8.7622026,12.7528649 C8.7622026,12.965578 8.93447392,13.1381995 9.14753713,13.1381995 C9.36025019,13.1381995 9.53287166,12.965578 9.53287166,12.7528649 L9.53287166,11.6634764 C9.53287166,10.4044427 8.50843504,9.38000605 7.24940129,9.38000605 L5.25900225,9.38000605 C3.99996851,9.38000605 2.97553189,10.4044427 2.97553189,11.6634764 L2.97553189,12.7528649 C2.97553189,12.965578 3.14824089,13.1381995 3.36095395,13.1381995 L3.36095395,13.1381995 Z"
                                          id="Fill-3"></path>
                                    <path d="M10.6394173,4.50091108 L21.197776,4.50091108 C21.4108392,4.50091108 21.5831105,4.32855222 21.5831105,4.11548902 C21.5831105,3.90277595 21.4108392,3.73015449 21.197776,3.73015449 L10.6394173,3.73015449 C10.4263541,3.73015449 10.2540827,3.90277595 10.2540827,4.11548902 C10.2540827,4.32855222 10.4263541,4.50091108 10.6394173,4.50091108 L10.6394173,4.50091108 Z"
                                          id="Fill-4"></path>
                                    <path d="M21.197776,12.3675304 L13.5520106,12.3675304 C13.3393851,12.3675304 13.1666761,12.5398017 13.1666761,12.7528649 C13.1666761,12.965578 13.3393851,13.1381995 13.5520106,13.1381995 L21.197776,13.1381995 C21.4108392,13.1381995 21.5834607,12.965578 21.5834607,12.7528649 C21.5831105,12.5398017 21.4108392,12.3675304 21.197776,12.3675304 L21.197776,12.3675304 Z"
                                          id="Fill-5"></path>
                                    <path d="M21.197776,8.15581173 L16.4448207,8.15581173 C16.2321952,8.15581173 16.0594862,8.32852073 16.0594862,8.5412338 C16.0594862,8.75385933 16.2321952,8.92656833 16.4448207,8.92656833 L21.197776,8.92656833 C21.4108392,8.92656833 21.5831105,8.75385933 21.5831105,8.5412338 C21.5831105,8.32852073 21.4108392,8.15581173 21.197776,8.15581173 L21.197776,8.15581173 Z"
                                          id="Fill-6"></path>
                                    <path d="M21.197776,10.261496 L16.4448207,10.261496 C16.2321952,10.261496 16.0594862,10.4338549 16.0594862,10.6468305 C16.0594862,10.8595436 16.2321952,11.0322526 16.4448207,11.0322526 L21.197776,11.0322526 C21.4108392,11.0322526 21.5831105,10.8595436 21.5831105,10.6468305 C21.5831105,10.4338549 21.4108392,10.261496 21.197776,10.261496 L21.197776,10.261496 Z"
                                          id="Fill-7"></path>
                                </g>
                            </g>
                        </g>
                    </g>
                </g>
            </g>
        </g>
    </g>
</svg>