<?xml version="1.0" encoding="UTF-8" standalone="no"?>
<svg width="62px" height="61px" viewBox="0 0 62 61" version="1.1" xmlns="http://www.w3.org/2000/svg"
     xmlns:xlink="http://www.w3.org/1999/xlink" xmlns:sketch="http://www.bohemiancoding.com/sketch/ns">
    <!-- Generator: bin/sketchtool 1.4 (305) - http://www.bohemiancoding.com/sketch -->
    <title>Oval 113 Copy 6 + Imported Layers</title>
    <desc>Created with bin/sketchtool.</desc>
    <defs></defs>
    <g id="Page-2" stroke="none" stroke-width="1" fill="none" fill-rule="evenodd" sketch:type="MSPage">
        <g id="Icons" sketch:type="MSArtboardGroup" transform="translate(-89.000000, -304.000000)">
            <g id="Klima" sketch:type="MSLayerGroup" transform="translate(89.000000, 303.500000)">
                <g id="Oval-113-Copy-6-+-Imported-Layers" sketch:type="MSShapeGroup">
                    <ellipse id="Oval-113-Copy-6" fill="#94C558" cx="30.9257813" cy="30.84375" rx="30.2246094"
                             ry="30.2246094"></ellipse>
                    <g id="Imported-Layers" transform="translate(10.701172, 10.619141)" fill="#FFFFFF">
                        <path d="M21.9574937,39.8903704 L21.0027342,39.8903704 L21.0066835,0.194567901 L21.9574937,0.194567901 L21.8528354,6.42320988 L26.0327468,2.1837037 L28.5405949,4.6962963 L21.8528354,11.5985185 L21.8528354,18.682963 L28.0182911,15.2064198 L30.6826329,5.92691358 L34.0534177,6.84197531 L32.5121772,12.5659259 L37.8146962,9.35111111 L38.650481,10.8671605 L33.2694684,13.8479012 L38.9906203,15.4153086 L38.0758481,18.7876543 L28.7755823,16.4879012 L22.6101266,20.068642 L28.6970886,23.5975309 L38.0758481,21.2454321 L38.9906203,24.6167901 L33.2694684,26.1595062 L38.650481,29.1654321 L37.8146962,30.6814815 L32.5121772,27.4661728 L34.0534177,33.2434568 L30.6826329,34.1585185 L28.0182911,24.8261728 L21.8528354,21.4019753 L21.8528354,28.4883951 L28.5405949,35.4434568 L26.0327468,37.908642 L21.8528354,33.6622222 L21.9574937,39.8903704"
                              id="Fill-1"></path>
                        <path d="M13.1548481,13.1293827 C15.0238861,11.2424691 17.3120506,10.2879012 20.0198354,10.2666667 L20.0213165,29.8103704 C17.3821519,29.788642 15.1107722,28.8434568 13.2071772,26.9738272 C11.2813671,25.0819753 10.3187089,22.8488889 10.3187089,20.2750617 C10.3187089,17.4202469 11.2640886,15.0385185 13.1548481,13.1293827"
                              id="Fill-2"></path>
                        <path d="M0.199936709,20.0646914 L9.39356962,23.7688889 C9.21732911,23.1382716 9.08551899,22.5254321 8.99764557,21.9298765 C8.90927848,21.3348148 8.86534177,20.7130864 8.86534177,20.0646914 C8.86534177,19.3995062 8.90927848,18.7560494 8.99764557,18.134321 C9.08551899,17.5125926 9.21732911,16.9037037 9.39356962,16.3081481 L0.199936709,20.0646914"
                              id="Fill-3"></path>
                        <path d="M6.05586076,5.94765432 L9.89563291,15.1264198 C10.5087722,13.9871605 11.2576709,12.9753086 12.1423291,12.0908642 C13.0269873,11.2059259 14.0380253,10.4567901 15.1769241,9.84296296 L6.05586076,5.94765432"
                              id="Fill-4"></path>
                        <path d="M16.3582785,9.34074074 L20.0193418,0.194567901 L20.0198354,8.75851852 C19.4377975,8.76098765 18.8523038,8.80938272 18.2623671,8.90419753 C17.6586076,9.00098765 17.0237468,9.14666667 16.3582785,9.34074074"
                              id="Fill-5"></path>
                        <path d="M6.00353165,34.105679 L15.1769241,30.2340741 C14.0380253,29.6207407 13.0220506,28.8676543 12.129,27.9738272 C11.2354557,27.08 10.491,26.0548148 9.89563291,24.8987654 L6.00353165,34.105679"
                              id="Fill-6"></path>
                        <path d="M18.2623671,31.1728395 C18.8527975,31.2676543 19.4392785,31.3160494 20.0213165,31.3185185 L20.0227975,39.8908642 L16.3582785,30.7101235 C17.0237468,30.9214815 17.6586076,31.0760494 18.2623671,31.1728395"
                              id="Fill-7"></path>
                    </g>
                </g>
            </g>
        </g>
    </g>
</svg>