<?xml version="1.0" encoding="UTF-8" standalone="no"?>
<svg width="61px" height="61px" viewBox="0 0 61 61" version="1.1" xmlns="http://www.w3.org/2000/svg"
     xmlns:xlink="http://www.w3.org/1999/xlink" xmlns:sketch="http://www.bohemiancoding.com/sketch/ns">
    <!-- Generator: bin/sketchtool 1.4 (305) - http://www.bohemiancoding.com/sketch -->
    <title>Oval 113 Copy 4 + Imported Layers</title>
    <desc>Created with bin/sketchtool.</desc>
    <defs></defs>
    <g id="Page-2" stroke="none" stroke-width="1" fill="none" fill-rule="evenodd" sketch:type="MSPage">
        <g id="Icons" sketch:type="MSArtboardGroup" transform="translate(-89.000000, -149.000000)">
            <g id="WLAN" sketch:type="MSLayerGroup" transform="translate(89.000000, 148.500000)">
                <g id="Oval-113-Copy-4-+-Imported-Layers" transform="translate(0.000000, 1.000000)"
                   sketch:type="MSShapeGroup">
                    <circle id="Oval-113-Copy-4" fill="#94C558" cx="30.2246094" cy="30.2246094" r="30.2246094"></circle>
                    <g id="Imported-Layers" transform="translate(13.000000, 14.000000)" fill="#FFFFFF">
                        <path d="M16.5338823,4.78799385 C14.2393136,4.78799385 12.380595,6.64580448 12.380595,8.93991911 C12.380595,11.2349418 14.2393136,13.0963845 16.5338823,13.0963845 C18.8284509,13.0963845 20.6898936,11.2349418 20.6898936,8.93991911 C20.6898936,6.64580448 18.8284509,4.78799385 16.5338823,4.78799385 L16.5338823,4.78799385 Z M22.579485,2.89522443 L21.0876068,4.38574063 C22.2199088,5.55799552 22.9227169,7.16292234 22.9236249,8.93991911 C22.9227169,10.723726 22.2199088,12.3254748 21.0876068,13.4954596 L22.579485,14.9905159 C24.0931557,13.4300821 25.0247851,11.2944171 25.0306872,8.93991911 C25.0247851,6.5858751 24.0931557,4.45338818 22.579485,2.89522443 L22.579485,2.89522443 Z M25.1759706,0.298738854 L23.6868164,1.78925505 C25.500134,3.62799724 26.6174536,6.145485 26.6197237,8.93991911 C26.6174536,11.7379853 25.499226,14.2568351 23.6868164,16.0942153 L25.1759706,17.5829154 C27.372019,15.3705227 28.7276941,12.3163946 28.7276941,8.93991911 C28.7276941,5.5702538 27.372019,2.51430969 25.1759706,0.298738854 L25.1759706,0.298738854 Z M10.4900956,2.89522443 C8.97778693,4.45338818 8.04161745,6.5858751 8.03707734,8.93991911 C8.04161745,11.2944171 8.97778693,13.4300821 10.4900956,14.9905159 L11.9810658,13.4954596 C10.8483098,12.3254748 10.1450477,10.723726 10.1450477,8.93991911 C10.1450477,7.16292234 10.8483098,5.55799552 11.9810658,4.38574063 L10.4900956,2.89522443 L10.4900956,2.89522443 Z M9.38140219,1.78834703 L7.89270203,0.298738854 C5.69801568,2.51430969 4.34234057,5.56707573 4.34234057,8.93991911 C4.34234057,12.3163946 5.69801568,15.3705227 7.89270203,17.5829154 L9.38231021,16.0942153 C7.56944661,14.2568351 6.45121896,11.7379853 6.45121896,8.93991911 C6.45121896,6.145485 7.56944661,3.62572719 9.38140219,1.78834703 L9.38140219,1.78834703 Z"
                              id="Fill-1"></path>
                        <path d="M11.6880442,21.6833526 L9.42571026,30.8870517 L7.46120719,30.8870517 L6.12777859,25.5769459 C6.07193531,25.3467626 6.01245995,25.0330414 5.9493525,24.6362363 C5.91757177,24.8505292 5.84583813,25.187859 5.73460557,25.6482255 L4.46065234,30.8870517 L2.50840755,30.8870517 L0.353220104,21.6833526 L2.15110135,21.6833526 L3.36557922,27.2077513 C3.36557922,27.2077513 3.42505458,27.5173864 3.54400531,28.1366566 C3.57578604,27.9064733 3.62754323,27.6445093 3.69882286,27.3507646 L5.11578938,21.6833526 L6.88960807,21.6833526 L8.44958786,27.9101054 C8.8781737,26.1721535 9.37032099,24.0964179 9.92602974,21.6833526 L11.6880442,21.6833526"
                              id="Fill-2"></path>
                        <path d="M17.7281987,30.8870517 L12.7872034,30.8870517 L12.7872034,21.6833526 L14.5256093,21.6833526 L14.5256093,29.1845127 L17.7281987,29.1845127 L17.7281987,30.8870517"
                              id="Fill-3"></path>
                        <path d="M25.9090124,30.8870517 L24.0398516,30.8870517 L23.3134349,28.5175714 L20.3015298,28.5175714 L19.6105259,30.8870517 L17.8367072,30.8870517 L20.7178573,21.6833526 L23.0160581,21.6833526 L25.9090124,30.8870517 L25.9090124,30.8870517 Z M22.8612405,26.8863119 L21.8251887,23.2551366 L20.7773327,26.8863119 L22.8612405,26.8863119 L22.8612405,26.8863119 Z"
                              id="Fill-4"></path>
                        <path d="M33.8087937,30.8870517 L31.6631405,30.8870517 L28.4982339,23.83854 L28.4982339,24.4096851 L28.4982339,30.8870517 L26.8315616,30.8870517 L26.8315616,21.6833526 L29.2246505,21.6833526 C29.89931,23.1121233 30.8718003,25.2709429 32.1416674,28.1602652 L32.1416674,27.8506301 C32.1339493,27.715789 32.1298632,27.6168147 32.1298632,27.5532532 L32.1298632,21.6833526 L33.8087937,21.6833526 L33.8087937,30.8870517"
                              id="Fill-5"></path>
                    </g>
                </g>
            </g>
        </g>
    </g>
</svg>