<?xml version="1.0" encoding="UTF-8" standalone="no"?>
<svg
        xmlns:sketch="http://www.bohemiancoding.com/sketch/ns"
        xmlns:dc="http://purl.org/dc/elements/1.1/"
        xmlns:cc="http://creativecommons.org/ns#"
        xmlns:rdf="http://www.w3.org/1999/02/22-rdf-syntax-ns#"
        xmlns:svg="http://www.w3.org/2000/svg"
        xmlns="http://www.w3.org/2000/svg"
        xmlns:xlink="http://www.w3.org/1999/xlink"
        xmlns:sodipodi="http://sodipodi.sourceforge.net/DTD/sodipodi-0.dtd"
        xmlns:inkscape="http://www.inkscape.org/namespaces/inkscape"
        width="50px"
        height="50px"
        viewBox="0 0 50 50"
        version="1.1"
        id="svg2"
        inkscape:version="0.91 r13725"
        sodipodi:docname="catering.svg">
    <metadata
            id="metadata38">
        <rdf:RDF>
            <cc:Work
                    rdf:about="">
                <dc:format>image/svg+xml</dc:format>
                <dc:type
                        rdf:resource="http://purl.org/dc/dcmitype/StillImage"/>
            </cc:Work>
        </rdf:RDF>
    </metadata>
    <sodipodi:namedview
            pagecolor="#ffffff"
            bordercolor="#666666"
            borderopacity="1"
            objecttolerance="10"
            gridtolerance="10"
            guidetolerance="10"
            inkscape:pageopacity="0"
            inkscape:pageshadow="2"
            inkscape:window-width="1855"
            inkscape:window-height="1056"
            id="namedview36"
            showgrid="false"
            inkscape:zoom="1.18"
            inkscape:cx="68.476747"
            inkscape:cy="-58.428963"
            inkscape:window-x="65"
            inkscape:window-y="24"
            inkscape:window-maximized="1"
            inkscape:current-layer="svg2"/>
    <!-- Generator: bin/sketchtool 1.4 (305) - http://www.bohemiancoding.com/sketch -->
    <title
            id="title4">Oval 113 + food
    </title>
    <desc
            id="desc6">Created with bin/sketchtool.
    </desc>
    <defs
            id="defs8">
        <linearGradient
                x1="3.061617e-15%"
                y1="50%"
                x2="100%"
                y2="50%"
                id="linearGradient-1">
            <stop
                    stop-color="#94C558"
                    stop-opacity="0.33166327"
                    offset="0%"
                    id="stop11"/>
            <stop
                    stop-color="#429321"
                    stop-opacity="0"
                    offset="100%"
                    id="stop13"/>
        </linearGradient>
        <path
                id="path-2"
                d="M0.0769230769,0.193043478 L33.3333333,0.193043478 L33.3333333,28.8886957 L0.0769230769,28.8886957 L0.0769230769,0.193043478 Z"/>
    </defs>
    <g
            id="Page-2"
            stroke="none"
            stroke-width="1"
            fill="none"
            fill-rule="evenodd"
            sketch:type="MSPage">
        <g
                id="Flottenseite-Bus-aufgeklappt-BM"
                sketch:type="MSArtboardGroup"
                transform="translate(-958.000000, -404.000000)">
            <g
                    id="Rectangle-151-+-Catering-anfragen-›-+-Oval-113-+-food-+-Rectangle-151-+-Unser-Team-kontaktie-+-Oval-113-Copy-+-phone-+-Oval-113-Copy-2-+-?-+-Rectangle-151-Copy-+-Allgemeine-Fragen-›"
                    sketch:type="MSLayerGroup"
                    transform="translate(958.000000, 404.000000)">
                <g
                        id="Rectangle-151-+-Catering-anfragen-›-+-Oval-113-+-food">
                    <g
                            id="Oval-113-+-food">
                        <circle
                                id="Oval-113"
                                fill="#94C558"
                                sketch:type="MSShapeGroup"
                                cx="25"
                                cy="25"
                                r="25"/>
                        <g
                                id="food"
                                transform="translate(8.333333, 10.000000)">
                            <g
                                    id="Group-4">
                                <mask
                                        id="mask-3"
                                        sketch:name="Clip 2"
                                        fill="white">
                                    <use
                                            xlink:href="#path-2"
                                            id="use26"/>
                                </mask>
                                <g
                                        id="Clip-2"/>
                                <path
                                        d="M26.4269231,17.9034783 L14.8282051,25.9173913 C14.3525641,26.2643478 13.7974359,26.4482609 13.2205128,26.4482609 C12.5294872,26.4482609 11.8192308,26.1821739 11.3076923,25.7295652 L0.15,15.7682609 C-0.0397435897,16.0995652 -0.0102564103,16.4869565 0.0294871795,17.1443478 C0.0551282051,17.5565217 0.21025641,17.8878261 0.475641026,18.1226087 L11.9589744,28.3734783 C12.4551282,28.8169565 13.7820513,28.7765217 14.2974359,28.3995652 L25.9871795,20.3230435 C26.6525641,20.5278261 27.8346154,20.8017391 28.8666667,20.6491304 C30.1730769,20.4613043 31.8653846,19.6708696 32.3564103,18.056087 C32.4269231,17.816087 32.6128205,17.2708696 32.6128205,16.5378261 C31.5961538,17.4195652 30.3141026,17.9086957 29.2269231,18.0613043 C28.2653846,18.2086957 27.2038462,18.0769565 26.4269231,17.9034783 L26.4269231,17.9034783 Z"
                                        id="Fill-1"
                                        fill="#FFFFFF"
                                        sketch:type="MSShapeGroup"
                                        mask="url(#mask-3)"/>
                                <path
                                        d="M0.580769231,13.7452174 L11.8038462,23.6804348 C12.2692308,24.1552174 13.8269231,24.7969565 14.9884615,23.6204348 L26.0923077,15.9469565 C26.7628205,16.1504348 27.9397436,16.4256522 28.9769231,16.2730435 C30.2782051,16.083913 31.9717949,15.2947826 32.4615385,13.68 C32.6371795,13.1086957 33.4935897,10.6982609 30.7294872,8.24347826 C29.7576923,7.39695652 21.3346154,0.193043478 16.5064103,0.193043478 C15.4602564,0.193043478 13.1012821,0.580434783 12.8358974,4.01347826 L0.630769231,10.9786957 C0.0153846154,11.4430435 0.0846153846,11.8252174 0.13974359,12.7669565 C0.165384615,13.1804348 0.320512821,13.5117391 0.580769231,13.7452174 L0.580769231,13.7452174 Z M4.74230769,12.09 C4.77307692,11.7782609 4.9474359,11.5043478 5.21282051,11.3556522 L14.5628205,6.02608696 C14.8833333,5.84869565 15.0794872,5.51217391 15.0794872,5.14565217 C15.0794872,3.00521739 15.9858974,3.00521739 16.5269231,3.00521739 C19.7166667,3.00521739 26.2217949,8.05434783 28.4653846,10.0004348 C29.2564103,10.7452174 29.6423077,11.4573913 29.5025641,11.9321739 C29.3564103,12.3952174 28.6602564,12.8282609 27.8692308,12.9404348 C26.9179487,13.0786957 25.6910256,12.5843478 25.675641,12.5791304 C25.5615385,12.5334783 25.4358974,12.5073913 25.3153846,12.5073913 C25.1153846,12.5073913 24.9205128,12.5686957 24.75,12.6808696 L14.4487179,19.803913 C13.8923077,20.186087 13.1564103,20.1404348 12.6551282,19.6917391 L5.0525641,12.9052174 C4.82820513,12.7017391 4.70769231,12.3952174 4.74230769,12.09 L4.74230769,12.09 Z"
                                        id="Fill-3"
                                        fill="#FFFFFF"
                                        sketch:type="MSShapeGroup"
                                        mask="url(#mask-3)"/>
                            </g>
                            <path
                                    d="M10.5564103,11.8656522 C10.5564103,12.2986957 10.0807692,12.6547826 9.48974359,12.6547826 C8.89871795,12.6547826 8.42307692,12.2986957 8.42307692,11.8656522 C8.42307692,11.4273913 8.89871795,11.0713043 9.48974359,11.0713043 C10.0807692,11.0713043 10.5564103,11.4273913 10.5564103,11.8656522 L10.5564103,11.8656522 Z"
                                    id="Fill-5"
                                    fill="#FFFFFF"
                                    sketch:type="MSShapeGroup"/>
                            <path
                                    d="M16.4807692,15.4826087 C16.4807692,15.9156522 16.0051282,16.2730435 15.4141026,16.2730435 C14.8282051,16.2730435 14.3474359,15.9156522 14.3474359,15.4826087 C14.3474359,15.0443478 14.8282051,14.6882609 15.4141026,14.6882609 C16.0051282,14.6882609 16.4807692,15.0443478 16.4807692,15.4826087 L16.4807692,15.4826087 Z"
                                    id="Fill-6"
                                    fill="#FFFFFF"
                                    sketch:type="MSShapeGroup"/>
                            <path
                                    d="M18.8551282,7.04086957 C18.8551282,7.47913043 18.374359,7.83 17.7884615,7.83 C17.1974359,7.83 16.7166667,7.47913043 16.7166667,7.04086957 C16.7166667,6.6026087 17.1974359,6.24521739 17.7884615,6.24521739 C18.374359,6.24521739 18.8551282,6.6026087 18.8551282,7.04086957 L18.8551282,7.04086957 Z"
                                    id="Fill-7"
                                    fill="#FFFFFF"
                                    sketch:type="MSShapeGroup"/>
                            <path
                                    d="M23.4923077,9.45 C23.4923077,9.84782609 23.0615385,10.1686957 22.525641,10.1686957 C21.9948718,10.1686957 21.5641026,9.84782609 21.5641026,9.45 C21.5641026,9.05869565 21.9948718,8.73652174 22.525641,8.73652174 C23.0615385,8.73652174 23.4923077,9.05869565 23.4923077,9.45 L23.4923077,9.45 Z"
                                    id="Fill-8"
                                    fill="#FFFFFF"
                                    sketch:type="MSShapeGroup"/>
                            <path
                                    d="M17.5679487,10.6578261 C17.5679487,11.0556522 17.1320513,11.3765217 16.6012821,11.3765217 C16.0653846,11.3765217 15.6346154,11.0556522 15.6346154,10.6578261 C15.6346154,10.26 16.0653846,9.93913043 16.6012821,9.93913043 C17.1320513,9.93913043 17.5679487,10.26 17.5679487,10.6578261 L17.5679487,10.6578261 Z"
                                    id="Fill-9"
                                    fill="#FFFFFF"
                                    sketch:type="MSShapeGroup"/>
                        </g>
                    </g>
                </g>
            </g>
        </g>
    </g>
</svg>
